[
  {
    "label": "Jakarta",
    "value": "jakart"
  },
  {
    "label": "Bogor",
    "value": "bogo"
  },
  {
    "label": "Depok",
    "value": "depo"
  },
  {
    "label": "Tangerang",
    "value": "tangeran"
  },
  {
    "label": "Bekasi",
    "value": "bekas"
  },
  {
    "label": "Bandung",
    "value": "bandun"
  },
  {
    "label": "Surabaya",
    "value": "surabay"
  },
  {
    "label": "Yogyakarta",
    "value": "yogyakart"
  }
]