<?xml version="1.0" encoding="UTF-8"?>
<svg width="14px" height="8px" viewBox="0 0 14 8" version="1.1" xmlns="http://www.w3.org/2000/svg" xmlns:xlink="http://www.w3.org/1999/xlink">
    <!-- Generator: sketchtool 46.2 (44496) - http://www.bohemiancoding.com/sketch -->
    <title>890CF1FD-4654-490D-916A-73112099EA50</title>
    <desc>Created with sketchtool.</desc>
    <defs></defs>
    <g id="Page-1" stroke="none" stroke-width="1" fill="none" fill-rule="evenodd">
        <g id="4_3-Sort-&amp;-Filter-Partial" transform="translate(-277.000000, -172.000000)" stroke-width="2" stroke="#8491A3">
            <g id="sort-&amp;-filter" transform="translate(0.000000, 100.000000)">
                <polyline id="Icons/ic_drop_down" transform="translate(284.000000, 73.000000) rotate(135.000000) translate(-284.000000, -73.000000) " points="280 69 288 69 288 77"></polyline>
            </g>
        </g>
    </g>
</svg>